<?xml version="1.0" encoding="UTF-8"?>
<svg width="1242.3" height="353.74" version="1.1" viewBox="0 0 1242.3 353.74" xmlns="http://www.w3.org/2000/svg" xmlns:cc="http://creativecommons.org/ns#" xmlns:dc="http://purl.org/dc/elements/1.1/" xmlns:rdf="http://www.w3.org/1999/02/22-rdf-syntax-ns#">
 <defs>
  <linearGradient id="linearGradient5311" x1="-467.57" x2="-458.83" y1="-68.973" y2="310.84" gradientUnits="userSpaceOnUse">
   <stop stop-color="#fe22d1" offset="0"/>
   <stop stop-color="#886bff" offset="1"/>
  </linearGradient>
 </defs>
 <g transform="translate(364.41 8.5023)">
  <g transform="matrix(.43789 -.43789 .43789 .43789 -547.02 450.07)">
   <circle transform="translate(1202,-114.01)" cx="-469.87" cy="202.82" r="285.61" fill="url(#linearGradient5311)"/>
   <circle transform="matrix(.60887 0 0 .60887 1018.2 79.03)" cx="-469.87" cy="202.82" r="285.61" fill="#eee"/>
  </g>
  <text x="32.548206" y="166.12645" font-family="Exo" font-size="133.33px" font-weight="500" word-spacing="0px" style="line-height:1.25" xml:space="preserve"><tspan x="32.548206" y="166.12645" font-size="133.33px">NEWNEWS</tspan></text>
  <text x="39.865509" y="261.55981" fill="#886bff" font-family="Exo" font-size="133.33px" font-weight="500" stroke-width="1.0016" word-spacing="0px" style="line-height:1.25" xml:space="preserve"><tspan x="39.865509" y="261.55981" fill="#886bff" font-size="74.667px" stroke-width="1.0016">only the newest of news</tspan></text>
 </g>
 <metadata>
  <rdf:RDF>
   <cc:Work>
    <dc:format>image/svg+xml</dc:format>
    <dc:type rdf:resource="http://purl.org/dc/dcmitype/StillImage"/>
    <cc:license rdf:resource="http://creativecommons.org/licenses/publicdomain/"/>
    <dc:publisher>
     <cc:Agent rdf:about="http://openclipart.org/">
      <dc:title>Openclipart</dc:title>
     </cc:Agent>
    </dc:publisher>
    <dc:title/>
    <dc:date>2010-08-03T00:39:17</dc:date>
    <dc:description>generic example of a logo</dc:description>
    <dc:source>https://openclipart.org/detail/76573/generic-logo-by-shokunin</dc:source>
    <dc:creator>
     <cc:Agent>
      <dc:title>shokunin</dc:title>
     </cc:Agent>
    </dc:creator>
    <dc:subject>
     <rdf:Bag>
      <rdf:li>company</rdf:li>
      <rdf:li>logo</rdf:li>
      <rdf:li>logotyp</rdf:li>
      <rdf:li>sign</rdf:li>
      <rdf:li>trademark</rdf:li>
      <rdf:li>your company</rdf:li>
     </rdf:Bag>
    </dc:subject>
   </cc:Work>
   <cc:License rdf:about="http://creativecommons.org/licenses/publicdomain/">
    <cc:permits rdf:resource="http://creativecommons.org/ns#Reproduction"/>
    <cc:permits rdf:resource="http://creativecommons.org/ns#Distribution"/>
    <cc:permits rdf:resource="http://creativecommons.org/ns#DerivativeWorks"/>
   </cc:License>
  </rdf:RDF>
 </metadata>
</svg>
